…
詳しいパラメータの意味は[公式ドキュメント](http://nlftp.mlit.go.jp/ksj/api/specification_api_ksj.pdf)（PDF）をご参照ください

### 国土数値情報の概要情報取得

``` r
library(kokudosuuchi)
#> このサービスは、「国土交通省　国土数値情報（カテゴリ名）」をもとに加工者が作成
#> 以下の国土数値情報ダウンロードサービスの利用約款をご確認の上ご利用ください：
#> 
#> http://nlftp.mlit.go.jp/ksj/other/yakkan.html

getKSJSummary()
#> # A tibble: 102 x 5
#>    identifier                title           field1       field2 areaType
#>         <chr>                <chr>            <chr>        <chr>    <chr>
#>  1        A03   三大都市圏計画区域         政策区域     大都市圏        2
#>  2        A09             都市地域 国土（水・土地）     土地利用        3
#>  3        A10         自然公園地域             地域     保護保全        3
#>  4        A11         自然保全地域             地域     保護保全        3
#>  5        A12             農業地域 国土（水・土地）     土地利用        3
#>  6        A13             森林地域 国土（水・土地）     土地利用        3
#>  7        A15           鳥獣保護区             地域     保護保全        3
#>  8        A16         人口集中地区         政策区域            -        3
#>  9        A17             過疎地域         政策区域 条件不利地域        3
#> 10        A18 半島振興対策実施地域         政策区域 条件不利地域        3
#> # ... with 92 more rows
```
…
#> W05_005 => 原典資料種別
#> W05_006 => 流下方向判定
#> W05_007 => 河川始点
#> W05_008 => 河川終点
#> W05_009 => 流路始点
#> W05_010 => 流路終点
#> geometry => geometry
#> $`W05-07_03-g_RiverNode`
#> Simple feature collection with 7534 features and 3 fields
#> geometry type:  POINT
#> dimension:      XY
#> bbox:           xmin: 140.6586 ymin: 38.75135 xmax: 142.0721 ymax: 40.44006
#> epsg (SRID):    NA
#> proj4string:    NA
#> # A tibble: 7,534 x 4
#>    水系域  標高      W05_000        geometry
#>     <chr> <chr>        <chr> <S3: sfc_POINT>
#>  1 820208   563 gb03_0306894 <S3: sfc_POINT>
#>  2 820208   707 gb03_0306905 <S3: sfc_POINT>
#>  3 820208   668 gb03_0306906 <S3: sfc_POINT>
#>  4 820208   584 gb03_0306909 <S3: sfc_POINT>
#>  5 820208   360 gb03_0306916 <S3: sfc_POINT>
#>  6 820208   452 gb03_0306922 <S3: sfc_POINT>
#>  7 820208   377 gb03_0306923 <S3: sfc_POINT>
#>  8 820208   327 gb03_0306924 <S3: sfc_POINT>
#>  9 820208   414 gb03_0306925 <S3: sfc_POINT>
#> 10 820208   578 gb03_0306926 <S3: sfc_POINT>
#> # ... with 7,524 more rows
#> 
#> $`W05-07_03-g_Stream`
#> Simple feature collection with 7597 features and 10 fields
#> geometry type:  LINESTRING
#> dimension:      XY
#> bbox:           xmin: 140.6586 ymin: 38.75135 xmax: 142.0721 ymax: 40.44006
#> epsg (SRID):    NA
#> proj4string:    NA
#> # A tibble: 7,597 x 11
#>    水系域 河川コード 区間種別 河川名 原典資料種別 流下方向判定
#>     <chr>      <chr>    <chr>  <chr>        <chr>        <chr>
#>  1 030041 0300410001        3 浜田川            4         true
#>  2 030020 0300200001        3 重茂川            3         true
#>  3 030020 0300200001        3 重茂川            3         true
#>  4 030017 0300170003        3 近内川            3         true
#>  5 030017 0300170004        3 長沢川            3         true
#>  6 030017 0300170004        3 長沢川            3         true
#>  7 030017 0300170004        3 長沢川            3         true
#>  8 030017 0300170004        3 長沢川            3         true
#>  9 030017 0300170004        3 長沢川            3         true
#> 10 030017 0300170002        3 山口川            3         true
#> # ... with 7,587 more rows, and 5 more variables: 河川始点 <chr>,
#> #   河川終点 <chr>, 流路始点 <chr>, 流路終点 <chr>, geometry <S3:
#> #   sfc_LINESTRING>
```
