# readKSJData() works

    Code
      translateKSJData(d)
    Output
      $`P11-10_36-jgd-g_BusStop`
      Simple feature collection with 2031 features and 41 fields
      geometry type:  POINT
      dimension:      XY
      bbox:           xmin: 133.6901 ymin: 33.54718 xmax: 134.6978 ymax: 34.23716
      CRS:            NA
      # A tibble: 2,031 x 42
         バス停名 バス区分 バス区分_code 事業者名_1 事業者名_2 事業者名_3 事業者名_4
         <chr>    <list>   <chr>         <chr>      <chr>      <chr>      <chr>     
       1 鳴門公園口~ <chr [1~ 1             さんようバス（株）~ <NA>       <NA>       <NA>      
       2 徳島駅前 <chr [3~ 1,1,1         さんようバス（株）~ <NA>       <NA>       <NA>      
       3 鳴門西   <chr [1~ 1             さんようバス（株）~ <NA>       <NA>       <NA>      
       4 板野     <chr [1~ 1             さんようバス（株）~ <NA>       <NA>       <NA>      
       5 上坂     <chr [1~ 1             さんようバス（株）~ <NA>       <NA>       <NA>      
       6 土成     <chr [1~ 1             さんようバス（株）~ <NA>       <NA>       <NA>      
       7 阿波     <chr [1~ 1             さんようバス（株）~ <NA>       <NA>       <NA>      
       8 脇町     <chr [1~ 1             さんようバス（株）~ <NA>       <NA>       <NA>      
       9 美馬     <chr [1~ 1             さんようバス（株）~ <NA>       <NA>       <NA>      
      10 井川（四交前）~ <chr [1~ 1             さんようバス（株）~ <NA>       <NA>       <NA>      
      # ... with 2,021 more rows, and 35 more variables: 事業者名_5 <chr>,
      #   事業者名_6 <chr>, 事業者名_7 <chr>, 事業者名_8 <chr>, 事業者名_9 <chr>,
      #   事業者名_10 <chr>, 事業者名_11 <chr>, 事業者名_12 <chr>, 事業者名_13 <chr>,
      #   事業者名_14 <chr>, 事業者名_15 <chr>, 事業者名_16 <chr>, 事業者名_17 <chr>,
      #   事業者名_18 <chr>, 事業者名_19 <chr>, バス系統_1 <chr>, バス系統_2 <chr>,
      #   バス系統_3 <chr>, バス系統_4 <chr>, バス系統_5 <chr>, バス系統_6 <chr>,
      #   バス系統_7 <chr>, バス系統_8 <chr>, バス系統_9 <chr>, バス系統_10 <chr>,
      #   バス系統_11 <chr>, バス系統_12 <chr>, バス系統_13 <chr>, バス系統_14 <chr>,
      #   バス系統_15 <chr>, バス系統_16 <chr>, バス系統_17 <chr>, バス系統_18 <chr>,
…
---

    Code
      translateKSJData(d, translate_colnames = FALSE)
    Warning <warning>
      There are some columns yet to be translated: P11_001,P11_002,P11_003_1,P11_003_2,P11_003_3,P11_003_4,P11_003_5,P11_003_6,P11_003_7,P11_003_8,P11_003_9,P11_003_10,P11_003_11,P11_003_12,P11_003_13,P11_003_14,P11_003_15,P11_003_16,P11_003_17,P11_003_18,P11_003_19,P11_004_1,P11_004_2,P11_004_3,P11_004_4,P11_004_5,P11_004_6,P11_004_7,P11_004_8,P11_004_9,P11_004_10,P11_004_11,P11_004_12,P11_004_13,P11_004_14,P11_004_15,P11_004_16,P11_004_17,P11_004_18,P11_004_19
    Output
      $`P11-10_36-jgd-g_BusStop`
      Simple feature collection with 2031 features and 41 fields
      geometry type:  POINT
      dimension:      XY
      bbox:           xmin: 133.6901 ymin: 33.54718 xmax: 134.6978 ymax: 34.23716
      CRS:            NA
      # A tibble: 2,031 x 42
         P11_001 P11_002 P11_002_code P11_003_1 P11_003_2 P11_003_3 P11_003_4
         <chr>   <list>  <chr>        <chr>     <chr>     <chr>     <chr>    
       1 鳴門公園口~ <chr [~ 1            さんようバス（株~ <NA>      <NA>      <NA>     
       2 徳島駅前~ <chr [~ 1,1,1        さんようバス（株~ <NA>      <NA>      <NA>     
       3 鳴門西  <chr [~ 1            さんようバス（株~ <NA>      <NA>      <NA>     
       4 板野    <chr [~ 1            さんようバス（株~ <NA>      <NA>      <NA>     
       5 上坂    <chr [~ 1            さんようバス（株~ <NA>      <NA>      <NA>     
       6 土成    <chr [~ 1            さんようバス（株~ <NA>      <NA>      <NA>     
       7 阿波    <chr [~ 1            さんようバス（株~ <NA>      <NA>      <NA>     
       8 脇町    <chr [~ 1            さんようバス（株~ <NA>      <NA>      <NA>     
       9 美馬    <chr [~ 1            さんようバス（株~ <NA>      <NA>      <NA>     
      10 井川（四交前~ <chr [~ 1            さんようバス（株~ <NA>      <NA>      <NA>     
      # ... with 2,021 more rows, and 35 more variables: P11_003_5 <chr>,
      #   P11_003_6 <chr>, P11_003_7 <chr>, P11_003_8 <chr>, P11_003_9 <chr>,
      #   P11_003_10 <chr>, P11_003_11 <chr>, P11_003_12 <chr>, P11_003_13 <chr>,
      #   P11_003_14 <chr>, P11_003_15 <chr>, P11_003_16 <chr>, P11_003_17 <chr>,
      #   P11_003_18 <chr>, P11_003_19 <chr>, P11_004_1 <chr>, P11_004_2 <chr>,
      #   P11_004_3 <chr>, P11_004_4 <chr>, P11_004_5 <chr>, P11_004_6 <chr>,
      #   P11_004_7 <chr>, P11_004_8 <chr>, P11_004_9 <chr>, P11_004_10 <chr>,
      #   P11_004_11 <chr>, P11_004_12 <chr>, P11_004_13 <chr>, P11_004_14 <chr>,
      #   P11_004_15 <chr>, P11_004_16 <chr>, P11_004_17 <chr>, P11_004_18 <chr>,
      #   P11_004_19 <chr>, geometry <POINT>
      

---

    Code
      translateKSJData(d, translate_codelist = FALSE)
    Output
      $`P11-10_36-jgd-g_BusStop`
      Simple feature collection with 2031 features and 40 fields
      geometry type:  POINT
      dimension:      XY
      bbox:           xmin: 133.6901 ymin: 33.54718 xmax: 134.6978 ymax: 34.23716
      CRS:            NA
      # A tibble: 2,031 x 41
         バス停名 バス区分 事業者名_1 事業者名_2 事業者名_3 事業者名_4 事業者名_5
         <chr>    <chr>    <chr>      <chr>      <chr>      <chr>      <chr>     
       1 鳴門公園口~ 1        さんようバス（株）~ <NA>       <NA>       <NA>       <NA>      
       2 徳島駅前 1,1,1    さんようバス（株）~ <NA>       <NA>       <NA>       <NA>      
       3 鳴門西   1        さんようバス（株）~ <NA>       <NA>       <NA>       <NA>      
       4 板野     1        さんようバス（株）~ <NA>       <NA>       <NA>       <NA>      
       5 上坂     1        さんようバス（株）~ <NA>       <NA>       <NA>       <NA>      
       6 土成     1        さんようバス（株）~ <NA>       <NA>       <NA>       <NA>      
       7 阿波     1        さんようバス（株）~ <NA>       <NA>       <NA>       <NA>      
       8 脇町     1        さんようバス（株）~ <NA>       <NA>       <NA>       <NA>      
       9 美馬     1        さんようバス（株）~ <NA>       <NA>       <NA>       <NA>      
      10 井川（四交前）~ 1        さんようバス（株）~ <NA>       <NA>       <NA>       <NA>      
      # ... with 2,021 more rows, and 34 more variables: 事業者名_6 <chr>,
      #   事業者名_7 <chr>, 事業者名_8 <chr>, 事業者名_9 <chr>, 事業者名_10 <chr>,
      #   事業者名_11 <chr>, 事業者名_12 <chr>, 事業者名_13 <chr>, 事業者名_14 <chr>,
      #   事業者名_15 <chr>, 事業者名_16 <chr>, 事業者名_17 <chr>, 事業者名_18 <chr>,
      #   事業者名_19 <chr>, バス系統_1 <chr>, バス系統_2 <chr>, バス系統_3 <chr>,
      #   バス系統_4 <chr>, バス系統_5 <chr>, バス系統_6 <chr>, バス系統_7 <chr>,
      #   バス系統_8 <chr>, バス系統_9 <chr>, バス系統_10 <chr>, バス系統_11 <chr>,
      #   バス系統_12 <chr>, バス系統_13 <chr>, バス系統_14 <chr>, バス系統_15 <chr>,
      #   バス系統_16 <chr>, バス系統_17 <chr>, バス系統_18 <chr>, バス系統_19 <chr>,
      #   geometry <POINT>
      

---

    Code
      translateKSJData(d_A03)
    Output
      $`A03-03_SYUTO-g_ThreeMajorMetroPlanArea`
      Simple feature collection with 1300 features and 9 fields
      geometry type:  POLYGON
      dimension:      XY
      bbox:           xmin: 136.0722 ymin: 20.42072 xmax: 153.9866 ymax: 37.15198
      CRS:            NA
      # A tibble: 1,300 x 10
         行政区域コード 都道府県名 郡市名 区町村名 陸水等区分 区域区分 区域コード
       * <chr>          <chr>      <chr>  <chr>    <chr>      <chr>    <list>    
       1 13421          東京都     小笠原支庁~ 小笠原村 1          無指定   <chr [0]> 
       2 13421          東京都     小笠原支庁~ 小笠原村 1          無指定   <chr [0]> 
       3 13421          東京都     小笠原支庁~ 小笠原村 1          無指定   <chr [0]> 
       4 13421          東京都     小笠原支庁~ 小笠原村 1          無指定   <chr [0]> 
       5 13421          東京都     小笠原支庁~ 小笠原村 1          無指定   <chr [0]> 
       6 13421          東京都     小笠原支庁~ 小笠原村 1          無指定   <chr [0]> 
       7 13421          東京都     小笠原支庁~ 小笠原村 1          無指定   <chr [0]> 
       8 13421          東京都     小笠原支庁~ 小笠原村 1          無指定   <chr [0]> 
       9 13421          東京都     小笠原支庁~ 小笠原村 1          無指定   <chr [0]> 
      10 13421          東京都     小笠原支庁~ 小笠原村 1          無指定   <chr [0]> 
      # ... with 1,290 more rows, and 3 more variables: 区域コード_code <chr>,
      #   備考 <chr>, geometry <POLYGON>
      

---

    Code
      translateKSJData(d_A22_m)
    Output
      $`A22-m-14_MaxSnowDepth_34`
      Simple feature collection with 30 features and 149 fields
      geometry type:  POINT
      dimension:      XY
      bbox:           xmin: 132.1416 ymin: 34.48692 xmax: 133.2783 ymax: 35.06595
      geographic CRS: JGD2011
      # A tibble: 30 x 150
         観測点名 観測点の所在地 観測点の管理者 `各年度別最深積雪（平均値）`~ `各年度別最深積雪（最大値）`~
         <chr>    <chr>          <chr>                     <dbl>            <dbl>
       1 布野     三次市布野町上布野~ 中国地方整備局             25.9               40
       2 横谷     三次市布野町横谷~ 中国地方整備局            107                199
       3 廿日市市吉和支~ 廿日市市吉和3425番1~ 廿日市市                   66.9              155
       4 溝口     山県郡芸北町大字溝口字大崎~ 国土交通省水管理・国土保全~             93.1              150
       5 東城     庄原市東城町川西~ 国土交通省水管理・国土保全~             27.5               50
       6 豊平     山県郡北広島町志路原鳥越~ 広島県                     56.4              109
       7 芸北     山県郡北広島町川小田~ 広島県                     87.3              176
       8 千代田   山県郡北広島町有田~ 広島県                     30.0              103
       9 大朝     山県郡北広島町大朝鳴滝~ 広島県                     64.0              156
      10 戸河内   山県郡安芸大田町川手~ 広島県                     49.0              120
      # ... with 20 more rows, and 145 more variables: 最深積雪_2013年度 <dbl>,
      #   最深積雪_2012年度 <dbl>, 最深積雪_2011年度 <dbl>, 最深積雪_2010年度 <dbl>,
      #   最深積雪_2009年度 <dbl>, 最深積雪_2008年度 <dbl>, 最深積雪_2007年度 <dbl>,
      #   最深積雪_2006年度 <dbl>, 最深積雪_2005年度 <dbl>, 最深積雪_2004年度 <dbl>,
      #   最深積雪_2003年度 <dbl>, 最深積雪_2002年度 <dbl>, 最深積雪_2001年度 <dbl>,
      #   最深積雪_2000年度 <dbl>, 最深積雪_1999年度 <dbl>, 最深積雪_1998年度 <dbl>,
      #   最深積雪_1997年度 <dbl>, 最深積雪_1996年度 <dbl>, 最深積雪_1995年度 <dbl>,
      #   最深積雪_1994年度 <dbl>, 最深積雪_1993年度 <dbl>, 最深積雪_1992年度 <dbl>,
      #   最深積雪_1991年度 <dbl>, 最深積雪_1990年度 <dbl>, 最深積雪_1989年度 <dbl>,
…
      $`A22-m-14_TotalSnowfall_34`
      Simple feature collection with 26 features and 149 fields
      geometry type:  POINT
      dimension:      XY
      bbox:           xmin: 132.1416 ymin: 34.48692 xmax: 133.2764 ymax: 35.06595
      geographic CRS: JGD2011
      # A tibble: 26 x 150
         観測点名 観測点の所在地 観測点の管理者 `各年度別累計降雪量（平均値）~ `各年度別累計降雪量（最大値）~
         <chr>    <chr>          <chr>                     <dbl>            <dbl>
       1 横谷     三次市布野町横谷~ 中国地方整備局            452.               821
       2 豊平     山県郡北広島町志路原鳥越~ 広島県                    293.               587
       3 芸北     山県郡北広島町川小田~ 広島県                    420.               789
       4 千代田   山県郡北広島町有田~ 広島県                    143.               317
       5 大朝     山県郡北広島町大朝鳴滝~ 広島県                    310.               762
       6 戸河内   山県郡安芸大田町川手~ 広島県                    235.               477
       7 八幡     山県郡北広島町西八幡原~ 広島県                    558.              1197
       8 吉和     廿日市市吉和   広島県                    346                808
       9 口和     庄原市口和町向泉~ 広島県                    226.               479
      10 東城     庄原市東城町川東~ 広島県                     80.2              210
      # ... with 16 more rows, and 145 more variables: 累計降雪量_2013年度 <dbl>,
      #   累計降雪量_2012年度 <dbl>, 累計降雪量_2011年度 <dbl>,
      #   累計降雪量_2010年度 <dbl>, 累計降雪量_2009年度 <dbl>,
      #   累計降雪量_2008年度 <dbl>, 累計降雪量_2007年度 <dbl>,
      #   累計降雪量_2006年度 <dbl>, 累計降雪量_2005年度 <dbl>,
      #   累計降雪量_2004年度 <dbl>, 累計降雪量_2003年度 <dbl>,
      #   累計降雪量_2002年度 <dbl>, 累計降雪量_2001年度 <dbl>,
      #   累計降雪量_2000年度 <dbl>, 累計降雪量_1999年度 <dbl>,
      #   累計降雪量_1998年度 <dbl>, 累計降雪量_1997年度 <dbl>,
…
      $`A37-15_PeninsulaRoad_45`
      Simple feature collection with 171 features and 2 fields
      geometry type:  LINESTRING
      dimension:      XY
      bbox:           xmin: 131.1656 ymin: 31.36304 xmax: 131.3871 ymax: 31.6268
      geographic CRS: JGD2011
      # A tibble: 171 x 3
         半島振興対策実施地域名~ 道路種別                                         geometry
         <chr>               <chr>                                    <LINESTRING [°]>
       1 大隅                国道       (131.3341 31.40008, 131.3341 31.40005, 131.33~
       2 大隅                国道       (131.3341 31.40008, 131.3341 31.40008, 131.33~
       3 大隅                国道       (131.344 31.40016, 131.3441 31.40023, 131.344~
       4 大隅                国道       (131.2297 31.4628, 131.2297 31.46278, 131.229~
       5 大隅                国道       (131.3728 31.53566, 131.3731 31.53492, 131.37~
       6 大隅                国道       (131.3641 31.54543, 131.3643 31.5456, 131.364~
       7 大隅                市区町村道等~ (131.334 31.36829, 131.3343 31.36824, 131.334~
       8 大隅                市区町村道等~ (131.3119 31.38912, 131.3123 31.38855, 131.31~
       9 大隅                市区町村道等~ (131.3119 31.38912, 131.3117 31.3894, 131.311~
      10 大隅                市区町村道等~ (131.3119 31.38912, 131.312 31.38922, 131.312~
      # ... with 161 more rows
…
      $`A37-15_PeninsulaDevelopmentTargetMunicipality_45`
      Simple feature collection with 805 features and 221 fields
      geometry type:  POLYGON
      dimension:      XY
      bbox:           xmin: 131.1598 ymin: 31.35638 xmax: 131.4253 ymax: 31.63734
      geographic CRS: JGD2011
      # A tibble: 805 x 222
         半島ID 半島振興対策実施地域名~ 市町村名 地域指定当時の市町村名~ `集計単位となる団体名（救急搬~
         <chr>  <chr>            <chr>    <chr>            <chr>           
       1 00103~ 大隅             日南市   南郷町           南郷町          
       2 00103~ 大隅             日南市   南郷町           南郷町          
       3 00103~ 大隅             日南市   南郷町           南郷町          
       4 00103~ 大隅             日南市   南郷町           南郷町          
       5 00103~ 大隅             日南市   南郷町           南郷町          
       6 00103~ 大隅             日南市   南郷町           南郷町          
       7 00103~ 大隅             日南市   南郷町           南郷町          
       8 00103~ 大隅             日南市   南郷町           南郷町          
       9 00103~ 大隅             日南市   南郷町           南郷町          
      10 00103~ 大隅             日南市   南郷町           南郷町          
      # ... with 795 more rows, and 217 more variables:
      #   データ整備時の行政コード <chr>, データ整備時の行政コード_code <chr>,
      #   `集計単位フラグ（救急搬送）` <chr>,
      #   `集計単位フラグ（救急搬送）_code` <int>, 年平均日射量 <dbl>,
      #   `平均風速（標高30m）` <dbl>, `平均風速（標高50m）` <dbl>,
      #   `平均風速（標高70m）` <dbl>, 耕作放棄地面積 <dbl>,
      #   `宿泊能力（客室数）` <int>, A37_330002 <int>, 救急車出動件数_2013年 <int>,
      #   消防防災ヘリ出動件数_2013年 <int>, 平均現場到着所要時間_2013年 <dbl>,
      #   平均病院収容時間_2013年 <dbl>, 救急車出動件数_2012年 <int>,
…
---

    Code
      translateKSJData(d_C02)
    Output
      $`C02-14-g_HarborDistrictBoundary`
      Simple feature collection with 1441 features and 3 fields
      geometry type:  LINESTRING
      dimension:      XY
      bbox:           xmin: 122.9931 ymin: 24.23125 xmax: 145.5942 ymax: 45.52797
      CRS:            NA
      # A tibble: 1,441 x 4
         都道府県コード 都道府県コード_code~ 港湾コード                          geometry
         <chr>          <chr>             <chr>                           <LINESTRING>
       1 北海道         01                01011      (139.5198 42.18118, 139.5277 42.~
       2 北海道         01                01014      (140.4955 42.97871, 140.4954 42.~
       3 北海道         01                01012      (140.7762 43.22544, 140.7892 43.~
       4 北海道         01                01036      (141.1637 41.82204, 141.1638 41.~
       5 北海道         01                01040      (141.1552 41.78428, 141.1551 41.~
       6 北海道         01                01004      (140.6976 41.74969, 140.6926 41.~
       7 北海道         01                01039      (140.5272 43.03034, 140.5267 43.~
       8 北海道         01                01001      (140.9309 42.33644, 140.9102 42.~
       9 北海道         01                01008      (140.5806 42.10826, 140.5804 42.~
      10 北海道         01                01009      (140.1258 41.85127, 140.1247 41.~
      # ... with 1,431 more rows
      
      $`C02-14-g_PortAndHarbor`
      Simple feature collection with 994 features and 18 fields
      geometry type:  POINT
      dimension:      XY
      bbox:           xmin: 122.9982 ymin: 24.23534 xmax: 145.5754 ymax: 45.52313
      CRS:            NA
      # A tibble: 994 x 19
         `種別（１）` `種別（１）_code`~ `種別（２）` `種別（２）_code`~ 行政区域コード
         <chr>        <chr>            <chr>        <chr>            <chr>         
       1 甲種         1                国際拠点港湾 12               北海道室蘭市  
       2 甲種         1                重要港湾     13               北海道函館市  
       3 甲種         1                重要港湾     13               北海道小樽市  
       4 乙種         2                地方港湾     14               北海道茅部郡森町~
       5 乙種         2                地方港湾     14               北海道檜山郡江差町~
       6 乙種         2                地方港湾     14               北海道久遠郡せたな町~
       7 乙種         2                地方港湾     14               北海道奥尻郡奥尻町~
       8 乙種         2                地方港湾     14               北海道余市郡余市町~
       9 乙種         2                地方港湾     14               北海道岩内郡岩内町~
      10 乙種         2                地方港湾     14               北海道松前郡松前町~
      # ... with 984 more rows, and 14 more variables: 行政区域コード_code <chr>,
      #   港湾コード <chr>, 港湾名 <chr>, 管理者区分 <chr>, 管理者区分_code <chr>,
      #   管理者名 <chr>, 政令指定年月日 <chr>, 設立年月日 <chr>,
      #   海事機関種別 <list>, 海事機関種別_code <chr>, 外郭施設延長 <chr>,
      #   係留施設延長 <chr>, フェリー便有無 <chr>, geometry <POINT>
      
      $`C02-14-g_PortDistrictBoundary`
      Simple feature collection with 520 features and 4 fields
      geometry type:  LINESTRING
      dimension:      XY
      bbox:           xmin: 124.1088 ymin: 24.32524 xmax: 145.5951 ymax: 45.46262
      CRS:            NA
      # A tibble: 520 x 5
         都道府県コード 都道府県コード_code~ `港湾・漁港コード_港湾コード~ `港湾・漁港コード_漁港コード~
         <chr>          <chr>            <chr>            <chr>           
       1 北海道         01               01001            <NA>            
       2 北海道         01               01004            1134020         
       3 北海道         01               01014            <NA>            
       4 北海道         01               01010            <NA>            
       5 北海道         01               01012            1112040         
       6 北海道         01               01009            <NA>            
       7 北海道         01               01032            <NA>            
       8 北海道         01               01008            <NA>            
       9 鹿児島県       46               46001            4920160         
      10 鹿児島県       46               46164            4930030         
      # ... with 510 more rows, and 1 more variable: geometry <LINESTRING>
      

---

    Code
      translateKSJData(d_L01)
    Output
      $`L01-20_30`
      Simple feature collection with 180 features and 134 fields
      geometry type:  POINT
      dimension:      XY
      bbox:           xmin: 135.0735 ymin: 33.47266 xmax: 136.0035 ymax: 34.36412
      geographic CRS: JGD2000
      # A tibble: 180 x 135
         標準地コード_見出し番号~ 標準地コード_見出し番号_co~ 標準地コード_一連番号~ 前年度標準地コード_見出し番号~
         <chr>            <chr>            <chr>            <chr>           
       1 住宅地           000              001              住宅地          
       2 住宅地           000              002              住宅地          
       3 住宅地           000              003              住宅地          
       4 住宅地           000              004              住宅地          
       5 住宅地           000              005              住宅地          
       6 住宅地           000              006              住宅地          
       7 住宅地           000              007              住宅地          
       8 住宅地           000              008              住宅地          
       9 住宅地           000              009              住宅地          
      10 住宅地           000              010              住宅地          
      # ... with 170 more rows, and 131 more variables:
      #   前年度標準地コード_見出し番号_code <chr>,
      #   前年度標準地コード_一連番号 <chr>, 年度 <chr>, 公示価格 <chr>,
      #   属性移動_選定状況 <chr>, 属性移動_選定状況_code <chr>,
      #   属性移動_住居漢字 <chr>, 属性移動_地積 <chr>, 属性移動_利用の現況 <chr>,
      #   属性移動_建物構造 <chr>, 属性移動_供給施設 <chr>,
      #   属性移動_駅からの距離 <chr>, 属性移動_用途区分 <chr>,
      #   属性移動_防火区分 <chr>, 属性移動_都市計画区分 <chr>,
      #   属性移動_森林区分 <chr>, 属性移動_法規制 <chr>, 属性移動_建ぺい率 <chr>,
…
